<svg xmlns="http://www.w3.org/2000/svg" width="27" height="27" viewBox="0 0 27 27">
  <metadata><?xpacket begin="﻿" id="W5M0MpCehiHzreSzNTczkc9d"?>
<x:xmpmeta xmlns:x="adobe:ns:meta/" x:xmptk="Adobe XMP Core 5.6-c138 79.159824, 2016/09/14-01:09:01        ">
   <rdf:RDF xmlns:rdf="http://www.w3.org/1999/02/22-rdf-syntax-ns#">
      <rdf:Description rdf:about=""/>
   </rdf:RDF>
</x:xmpmeta>
                                                                                                    
                                                                                                    
                                                                                                    
                                                                                                    
                                                                                                    
                                                                                                    
                                                                                                    
                                                                                                    
                                                                                                    
                                                                                                    
                                                                                                    
                                                                                                    
                                                                                                    
                                                                                                    
                                                                                                    
                                                                                                    
                                                                                                    
                                                                                                    
                                                                                                    
                                                                                                    
                           
<?xpacket end="w"?></metadata>
<defs>
    <style>
      .ico-play{
        fill: #fff;
        fill-rule: evenodd;
      }
    </style>
  </defs>
  <path id="Forma_1_копия_13" data-name="Forma 1 копия 13" class="ico-play" d="M223.5,2598a13.5,13.5,0,1,0,13.5,13.5A13.5,13.5,0,0,0,223.5,2598Zm4.666,14.21-6.75,4.22a0.8,0.8,0,0,1-.447.13,0.842,0.842,0,0,1-.409-0.1,0.857,0.857,0,0,1-.435-0.74v-8.44a0.846,0.846,0,0,1,1.291-.72l6.75,4.22a0.86,0.86,0,0,1,.4.72A0.83,0.83,0,0,1,228.165,2612.21Z" transform="translate(-210 -2598)"/>
</svg>
