<svg xmlns="http://www.w3.org/2000/svg" width="11.97" height="7" viewBox="0 0 11.97 7">
  <metadata><?xpacket begin="﻿" id="W5M0MpCehiHzreSzNTczkc9d"?>
<x:xmpmeta xmlns:x="adobe:ns:meta/" x:xmptk="Adobe XMP Core 5.6-c138 79.159824, 2016/09/14-01:09:01        ">
   <rdf:RDF xmlns:rdf="http://www.w3.org/1999/02/22-rdf-syntax-ns#">
      <rdf:Description rdf:about=""/>
   </rdf:RDF>
</x:xmpmeta>
                                                                                                    
                                                                                                    
                                                                                                    
                                                                                                    
                                                                                                    
                                                                                                    
                                                                                                    
                                                                                                    
                                                                                                    
                                                                                                    
                                                                                                    
                                                                                                    
                                                                                                    
                                                                                                    
                                                                                                    
                                                                                                    
                                                                                                    
                                                                                                    
                                                                                                    
                                                                                                    
                           
<?xpacket end="w"?></metadata>
<defs>
    <style>
      .ico-vk{
        fill-rule: evenodd;
      }
    </style>
  </defs>
  <path class="ico-vk" d="M1259.31,40.465a14.908,14.908,0,0,1,1.17,1.219,3.254,3.254,0,0,1,.42.626,0.447,0.447,0,0,1-.26.7h-1.75a1.321,1.321,0,0,1-1.11-.467c-0.24-.254-0.46-0.525-0.7-0.788a1.485,1.485,0,0,0-.31-0.289,0.359,0.359,0,0,0-.58.146,1.878,1.878,0,0,0-.18.842,0.475,0.475,0,0,1-.56.556,4.358,4.358,0,0,1-2.5-.555,5.752,5.752,0,0,1-1.68-1.626,22.154,22.154,0,0,1-2.21-4.075c-0.14-.321-0.04-0.494.31-0.5,0.57-.012,1.13-0.011,1.7,0a0.5,0.5,0,0,1,.48.366,10.837,10.837,0,0,0,1.16,2.219,1.8,1.8,0,0,0,.43.5,0.269,0.269,0,0,0,.46-0.137,1.835,1.835,0,0,0,.1-0.466,7.41,7.41,0,0,0-.03-1.631,0.67,0.67,0,0,0-.56-0.622c-0.17-.032-0.14-0.1-0.06-0.2a0.616,0.616,0,0,1,.53-0.275h1.97a0.486,0.486,0,0,1,.43.53V38.8a0.652,0.652,0,0,0,.28.579,0.379,0.379,0,0,0,.39-0.2,7.082,7.082,0,0,0,1.11-1.765c0.13-.279.25-0.568,0.36-0.858a0.423,0.423,0,0,1,.45-0.316l1.9,0a0.852,0.852,0,0,1,.16.011,0.34,0.34,0,0,1,.31.521,4.946,4.946,0,0,1-.75,1.353c-0.32.453-.66,0.89-0.97,1.346a0.625,0.625,0,0,0,.09.987h0Z" transform="translate(-1249 -36)"/>
</svg>
