<svg xmlns="http://www.w3.org/2000/svg" width="15.031" height="9" viewBox="0 0 15.031 9">
  <metadata><?xpacket begin="﻿" id="W5M0MpCehiHzreSzNTczkc9d"?>
<x:xmpmeta xmlns:x="adobe:ns:meta/" x:xmptk="Adobe XMP Core 5.6-c138 79.159824, 2016/09/14-01:09:01        ">
   <rdf:RDF xmlns:rdf="http://www.w3.org/1999/02/22-rdf-syntax-ns#">
      <rdf:Description rdf:about=""/>
   </rdf:RDF>
</x:xmpmeta>
                                                                                                    
                                                                                                    
                                                                                                    
                                                                                                    
                                                                                                    
                                                                                                    
                                                                                                    
                                                                                                    
                                                                                                    
                                                                                                    
                                                                                                    
                                                                                                    
                                                                                                    
                                                                                                    
                                                                                                    
                                                                                                    
                                                                                                    
                                                                                                    
                                                                                                    
                                                                                                    
                           
<?xpacket end="w"?></metadata>
<defs>
    <style>
      .ico-vk--gray {
        fill: #a8a8a8;
        fill-rule: evenodd;
      }
    </style>
  </defs>
  <path id="icon_vk_копия" data-name="icon_vk копия" class="ico-vk--gray" d="M567.922,5203.74c0.5,0.52,1.023,1,1.47,1.57a4.572,4.572,0,0,1,.527.8,0.584,0.584,0,0,1-.333.9H567.4a1.64,1.64,0,0,1-1.393-.6c-0.3-.33-0.583-0.67-0.874-1.01a1.969,1.969,0,0,0-.394-0.37,0.443,0.443,0,0,0-.729.18,2.585,2.585,0,0,0-.229,1.09,0.6,0.6,0,0,1-.7.71,5.3,5.3,0,0,1-3.13-.71,7.111,7.111,0,0,1-2.106-2.09,29.086,29.086,0,0,1-2.772-5.24c-0.174-.42-0.047-0.64.383-0.65q1.071-.015,2.142,0a0.64,0.64,0,0,1,.593.47,14.453,14.453,0,0,0,1.452,2.86,2.547,2.547,0,0,0,.549.64,0.329,0.329,0,0,0,.565-0.18,2.006,2.006,0,0,0,.126-0.6,9.578,9.578,0,0,0-.034-2.1,0.869,0.869,0,0,0-.7-0.8c-0.21-.04-0.179-0.12-0.078-0.25a0.792,0.792,0,0,1,.671-0.35h2.472a0.615,0.615,0,0,1,.529.68l0,2.91a0.875,0.875,0,0,0,.349.75,0.483,0.483,0,0,0,.493-0.26,8.908,8.908,0,0,0,1.393-2.27c0.167-.36.311-0.73,0.451-1.1a0.535,0.535,0,0,1,.558-0.41l2.379,0.01a1.47,1.47,0,0,1,.211.01c0.4,0.07.511,0.26,0.387,0.67a6.5,6.5,0,0,1-.946,1.74c-0.4.58-.821,1.14-1.215,1.73a0.819,0.819,0,0,0,.117,1.27h0Z" transform="translate(-555 -5198)"/>
</svg>
